ZILBAZ_clean.mepo
 10.702200000000  0.000000000000  0.000000000000
 -5.351100000000  9.268377076382  0.000000000000
  0.000000000000  0.000000000000 22.874200000000
141
    27    5.3494947    2.6850488    15.4972705   0.4421080
    27    5.0016732    3.2930544     0.2477276   0.4421100
    27    5.7021322    3.2902739     7.8726134   0.4421100
     1    4.7132489    3.8982794    18.2696235   0.1352020
     1    5.2066203    5.5313674    19.6443630   0.1092000
     1   -2.3373605    6.2932280    17.3843920   0.1035090
     1    7.5118742    4.8733127    15.8083596   0.1458420
     1    5.2847464    7.6908993    20.1796192   0.1167730
     1    0.5516984    0.0398540    21.7739510   0.1465530
     1    4.2214828    0.1028790    20.3328764   0.1143570
     1   -1.5277390    7.5249953    19.0336218   0.1046630
     1    3.0169502    4.7138966    15.0740978   0.1480790
     1    2.4128110    6.4276195    13.7176577   0.1027810
     1    5.4404634    5.5434163    11.3524655   0.1074170
     1    6.1034647    3.9613044    12.8209891   0.1329040
     1    1.6449281    7.5296295    12.0707153   0.1064940
     1    1.0637987    9.2220352    10.5907546   0.1152560
     1   10.1558527    0.0602445     9.1931410   0.1466990
     1    5.3430734    7.5287027    10.5335691   0.1218530
     1    6.3704846    3.2374441     3.0200806   0.1352100
     1    7.5380946    1.9936279     4.3948200   0.1092010
     1    1.2676756    8.1459766     2.1348491   0.1035100
     1    5.8155755    0.3262469     0.5588167   0.1458420
     1    9.3692410    0.8462028     4.9300763   0.1167730
     1    5.1097654    8.7706652     6.5244081   0.1465530
     1    3.3294544    5.5610262     5.0833335   0.1143580
     1    1.9296067    6.8289402     3.7840789   0.1046640
     1    7.9249791    4.2986733    22.6987549   0.1480770
     1   -0.9910237    3.9650117    21.3423148   0.1027820
     1    7.4316077    1.7850894    18.9771225   0.1074200
     1    5.7299579    2.0019694    20.4456462   0.1329040
     1    0.3472864    4.0790128    19.6953724   0.1064940
     1    2.1035174    3.7360828    18.2154117   0.1152560
     1    0.3253469    0.4430284    16.8177981   0.1466970
     1    9.1996111    0.8767885    18.1582262   0.1218570
     1    4.9695666    2.1326536    10.6449665   0.1352020
     1    3.3085851    1.7433817    12.0197059   0.1092030
     1    1.0696849    4.0975495     9.7597349   0.1035090
     1    2.7258503    4.0688175     8.1837025   0.1458410
     1    1.3993127    0.7312750    12.5549622   0.1167760
     1   10.3918362    0.4578578    14.1492939   0.1465510
     1    8.5023628    3.6044718    12.7082193   0.1143570
     1   -0.4018676    4.1828186    11.4089647   0.1046630
     1    5.1113707    0.2558072     7.4494407   0.1480780
     1   -1.4217873    8.1441229     6.0930007   0.1027820
     1    3.1812290    1.9398713     3.7278084   0.1074180
     1    4.2198775    3.3051033     5.1963320   0.1329130
     1   -1.9922145    6.9281119     4.4460583   0.1064960
     1   -3.1673161    5.5786362     2.9660975   0.1152570
     1    5.5721004    8.7651042     1.5684839   0.1466990
     1    1.5106155    0.8628859     2.9089120   0.1218530
     6    5.4356474    4.4655041    18.0248696  -0.0412350
     6    5.7374494    5.3960491    18.8666402  -0.0915650
     6    6.8371005    6.2051785    18.6218862  -0.0079920
     6   -3.1785534    5.8761511    17.5399366  -0.0855930
     6    7.0581009    4.9585817    16.6386931  -0.0266260
     6   -3.5178131    7.3275789    19.5208423  -0.0085290
     6   -4.5109773    7.9429992    20.2756909  -0.0906800
     6   -4.1417514    8.9532523    21.1883715  -0.0771370
     6    2.5348161    0.1825870    21.2592815   0.0250270
     6   -1.9799070    8.9532523    20.3969241  -0.0938150
     6   -2.2249874    7.8855352    19.5688781  -0.1009840
     6    2.8697949    1.3707930    22.1650998   0.2287320
     6    3.5584815    4.9029715    14.3146744  -0.0274530
     6    3.1839045    5.9224930    13.4934906  -0.0880620
     6    3.8763368    6.2413251    12.3612177  -0.0098770
     6    4.9353195    5.4284885    12.1484876  -0.0888980
     6    5.3152476    4.4553089    13.0154198  -0.0430440
     6    3.5322611    7.3396278    11.4622616  -0.0118920
     6    2.2956219    7.8688521    11.4668365  -0.0986960
     6    1.9585026    8.8976420    10.5930420  -0.0957640
     6    8.1903937    0.1983433     9.7581337   0.0272960
     6    4.1417514    8.9532523     9.7581337  -0.0791790
     6    4.4681685    7.8873889    10.5724552  -0.0923010
     6    7.8286593    1.3068412     8.8202915   0.2276300
     6    6.5005163    2.3282163     2.7753267  -0.0412350
     6    7.1554909    1.6015756     3.6170972  -0.0915670
     6    7.3063919    0.2446852     3.3723433  -0.0079920
     6    1.3270728    9.0830095     2.2903936  -0.0855920
     6    6.1163073    0.6765915     1.3891502  -0.0266260
     6    2.7536761    8.6511032     4.2712994  -0.0085280
     6    3.7832277    9.2034984     5.0261480  -0.0906800
     6    4.4735196    8.3786129     5.9388285  -0.0771360
     6    4.2418170    6.9818685     6.0097386   0.0250280
     6    3.3925974    6.5064007     5.1473812  -0.0938130
     6    2.5904675    7.2525051     4.3193352  -0.1009820
     6    5.1033441    6.0976653     6.9155569   0.2287330
     6    7.8179571    3.7351560    21.9393314  -0.0274550
     6   -1.8140229    3.5497884    21.1181477  -0.0880610
     6    8.8180777    2.7907083    19.9858748  -0.0098770
     6    7.5846491    2.2800208    19.7731447  -0.0888970
     6    6.5518868    2.4375832    20.6400769  -0.0430450
     6   -0.7609264    2.5395353    19.0869187  -0.0118930
     6    0.3157149    3.3458841    19.0914935  -0.0986960
     6    1.3752327    3.1234431    18.2176991  -0.0957640
     6    1.4276735    2.0761165    17.3827908   0.0272960
     6    0.3317682    1.2048890    17.3827908  -0.0791780
     6   -0.7545051    1.4551352    18.1971123  -0.0922990
     6    2.5685280    1.8351387    16.4449486   0.2276290
     6    4.1171363    2.4746567    10.4002125  -0.0412360
     6    3.1603597    2.2707524    11.2419831  -0.0915650
     6    1.9098076    2.8185135    10.9972291  -0.0079920
     6    1.8514806    3.5775936     9.9152795  -0.0855920
     6    2.8788918    3.6332038     9.0140360  -0.0266280
     6    0.7641371    2.5580721    11.8961852  -0.0085290
     6    0.7277496    1.3902566    12.6510338  -0.0906780
     6   -0.3317682    1.2048890    13.5637144  -0.0771360
     6    9.2766670    2.1039216    13.6346244   0.0250270
     6   -1.4126904    3.0771012    12.7722671  -0.0938150
     6   -0.3654801    3.3987139    11.9442210  -0.1009840
     6    8.0801610    1.7999188    14.5404427   0.2287320
     6    4.6768614    0.6302496     6.6900173  -0.0274530
     6   -1.3698816    9.0644728     5.8688335  -0.0880620
     6    3.3588855    0.2363436     4.7365606  -0.0098770
     6    3.5333313    1.5598679     4.5238305  -0.0888990
     6    4.1861655    2.3754850     5.3907627  -0.0430440
     6   -2.7713347    8.6575910     3.8376045  -0.0118920
     6   -2.6113368    7.3220179     3.8421794  -0.0986940
     6   -3.3337353    6.5156691     2.9683849  -0.0957620
     6    6.4352329    6.9939173     2.1334766   0.0272970
     6   -4.4735196    8.3786129     2.1334766  -0.0791780
     6   -3.7136634    9.1942301     2.9477982  -0.0923010
     6    5.6561127    6.1263972     1.1956344   0.2276300
     7    6.0141013    4.1939406    16.8651477  -0.1823870
     7    4.6474304    4.1438914    14.1110940  -0.1802710
     7    5.9761085    1.9630423     1.6156047  -0.1823860
     7    6.6161000    3.1716386    21.7357511  -0.1802760
     7    4.0630902    3.1113942     9.2404906  -0.1823910
     7    4.7897696    1.9528470     6.4864369  -0.1802700
     8    1.9397738    1.7971383     0.0571855  -0.3199490
     8    6.6246618    1.6998204     8.8271538  -0.3231900
     8    8.7501187    1.7684063     8.0745926  -0.3176360
     8    4.0663009    1.7266986    22.1582375  -0.3256300
     8    5.9375806    6.6899146     7.6818426  -0.3199490
     8    3.5108567    2.6813415    16.4518109  -0.3231890
     8    2.5075255    0.8063488    15.6992497  -0.3176380
     8    4.8133144    4.8835079     6.9086946  -0.3256330
     8    8.1759457    0.7813242    15.3067284  -0.3199520
     8    5.9177815    4.8872152     1.2024967  -0.3231920
     8    4.7956558    6.6936219     0.4499355  -0.3176370
     8    7.1736847    2.6581705    14.5335805  -0.3256290
