    3
Nonperiodic system
O      0.000000    -0.000000     0.579101     0.229617
O      0.000000     0.990774    -0.289550    -0.114808
O      0.000000    -0.990774    -0.289550    -0.114808
 
 Chargemol version 3.5 September 26, 2017.
See ddec.sourceforge.net for latest version.
 
Computational parameters:
Reference_weighting =      0.214286
Number of radial integration shells =    100
Cutoff radius (pm) =    500
Error in the integrated total number of electrons before renormalization (e) =    1.0902E-10
Charge convergence tolerance =    1.0000E-05
Minimum radius for electron cloud penetration fitting (pm) =    200
Minimum decay exponent for electron density of buried atom tails =   1.7500
Number of iterations to convergence =     22
 
The following XYZ coordinates are in angstroms. The atomic dipoles and quadrupoles are in atomic units.
atom number, atomic symbol, x, y, z, net_charge, dipole_x, dipole_y, dipole_z, dipole_mag, Qxy, Qxz, Qyz,Q(x^2-y^2), Q(3z^2 - R^2), three eigenvalues of traceless quadrupole moment tensor
    1 O      0.000000    -0.000000     0.579101     0.229617    -0.000000    -0.000000    -0.161890     0.161890    -0.000000     0.000000    -0.000000    -0.183830    -0.179202    -0.060078    -0.059434     0.119511
    2 O      0.000000     0.990774    -0.289550    -0.114808     0.000000    -0.011555     0.053938     0.055161    -0.000000     0.000000    -0.126438    -0.333035     0.073788    -0.176332    -0.051897     0.228229
    3 O      0.000000    -0.990774    -0.289550    -0.114808     0.000000     0.011555     0.053938     0.055161     0.000000     0.000000     0.126438    -0.333035     0.073788    -0.176332    -0.051897     0.228229
 
The sperically averaged electron density of each atom fit to a function of the form exp(a - br) for r >=rmin_cloud_penetration
atom number,atomic symbol, x, y, z, a, b, Rsquared where a and b are in atomic units and Rsquared is the squared correlation coefficient
    1 O      0.000000    -0.000000     0.579101    -1.717886     1.992242     0.980454
    2 O      0.000000     0.990774    -0.289550    -1.934415     1.798652     0.991412
    3 O      0.000000    -0.990774    -0.289550    -1.934415     1.798652     0.991412
 
  
 Since the system is non-periodic, the total dipole and quadrupole moments were computed relative to the system center of mass.
 Multipole moments (in atomic units) using the net atomic charges:
 Partial_charge_dipole_x =    0.0000   Partial_charge_dipole_y =    0.0000   Partial_charge_dipole_z =    0.3769     Partial_charge_dipole_magnitude =    0.3769
 Partial_charge_quadrupole_xy =    0.0000   Partial_charge_quadrupole_xz =    0.0000   Partial_charge_quadrupole_yz =   -0.0000   Partial_charge_quadrupole_x2minusy2 =    0.8049   Partial_charge_quadrupole_3z2minusr2 =    1.2174
 Eigenvalues of traceless quadrupole moment tensor =   -0.6054   0.1996   0.4058
 Multipole moments (in atomic units) using the net atomic charges and atomic dipoles:
 Dipole_x =   -0.0000   Dipole_y =    0.0000   Dipole_z =    0.3229   Dipole_magnitude =    0.3229
 Quadrupole_xy =    0.0000   Quadrupole_xz =   -0.0000   Quadrupole_yz =   -0.0000   Quadrupole_x2minusy2 =    0.8915   Quadrupole_3z2minusr2 =    0.3592
 Eigenvalues of traceless quadrupole moment tensor =   -0.5056   0.1197   0.3859
 Multipole moments (in atomic units) using the net atomic charges, atomic dipoles, and atomic quadrupoles:
 Dipole_x =   -0.0000   Dipole_y =    0.0000   Dipole_z =    0.3229   Dipole_magnitude =    0.3229
 Full_quadrupole_xy =    0.0000   Full_quadrupole_xz =    0.0000   Full_quadrupole_yz =   -0.0000   Full_quadrupole_x2minusy2 =    0.0416   Full_quadrupole_3z2minusr2 =    0.3275
 Eigenvalues of traceless quadrupole moment tensor =   -0.0754  -0.0338   0.1092
  
 2017/09/30  20:07:52
