 Input ESP file name in cube format
 plot_11.cube
 Fit molecular(0) or periodic(1:default) system?
 1
 van der Waals scaling factor (default = 1.0)
 1.00000
 Apply RESP penalties?, no(0:default), yes(1)
 0
 Read cutoff radius? no(0), yes(1:default)
 1
 If flag above=1 provide R_cutoff next (in Bohrs)
 20.00000
 Apply symmetry restrain? no(0:default), yes(1)
 0
 Use Goddard-type restrains? no(0:default), yes(1)
 0
 If flag above=1 then provide weight next
 0.00000
 van der Waals max scaling factor
 1000
 System total charge
 0.0
