  
 ******************** TIME CONTROL ********************
 Starting Chargemol version 3.5 September 26, 2017.
 ******************************************************
  
 Starting DDEC program
 2017/10/01  14:18:58
 Copyright (c) 2014, 2015, 2016 by Thomas A. Manz and Nidia Gabaldon Limas. Rights reserved.
  
 **************** THREAD INFORMATION ******************
 Job running using OpenMP.
 The number of parallel threads is:            4
  
 ******************************************************
  
 /home/tamanz/bin/atomic_densities/                                                                                                                                                                      
 GTO basis set type is supported. Calculation will proceed.
 ncenters=     3
 norbitals=      23
 netcharge= 1.00
 nprimitives=   108
 Natural orbital occupation numbers for alpha (1st column) and beta (2nd column) electrons.
      1.0000      0.0000
      1.0000      0.0000
      1.0000      0.0000
      1.0000      0.0000
      1.0000      0.0000
      1.0000      0.0000
      1.0000      0.0000
      1.0000      0.0000
      1.0000      0.0000
      1.0000      0.0000
      1.0000      0.0000
      1.0000      0.0000
      0.0000      1.0000
      0.0000      1.0000
      0.0000      1.0000
      0.0000      1.0000
      0.0000      1.0000
      0.0000      1.0000
      0.0000      1.0000
      0.0000      1.0000
      0.0000      1.0000
      0.0000      1.0000
      0.0000      1.0000
 The total number of electrons in natural orbitals is
 included electrons=      23
 Sorting the basis set primitives:
 natoms=     3
 The number of valence electrons is consistent with the sum of orbital occupations.
  
 ******************** TIME CONTROL ********************
 Starting generate_density_grids_from_gaussian_basis_set_coefficients
 ******************************************************
  
    0.1400    0.0000    0.0000
    0.0000    0.1400    0.0000
    0.0000    0.0000    0.1400
 Initial setup of atoms using temporary origin (0,0,0)
 center_nabc =
           0           0           4
           0          15          -2
           0         -15          -2
 delta_na=     69
 delta_nb=     69
 delta_nc=     69
 Compute a better origin and number of grid points along each grid direction
 totnumA=     168
 totnumB=     192
 totnumC=     168
 The new origin is
  -10.5000  -12.6000  -10.7800
 Compute atomic positions using the better origin
 center_nabc =
          75          90          81
          75         105          75
          75          75          75
 Making sure the atomic coordinates for periodic directions are inside the reference unit cell.
 The adjusted atomic coordinates are
    0.0000   -0.0000    0.6030
    0.0000    2.1452   -0.3015
    0.0000   -2.1452   -0.3015
  
 The adjusted center_nabc is
          75          90          81
          75         105          75
          75          75          75
 nimages=       1
  
 ******************** TIME CONTROL ********************
 Finished Step 1 in    0.0000000000000000      seconds.
 ******************************************************
  
 Setup of grid points was successful.
  
 ******************** TIME CONTROL ********************
 Finished Step 2 in    2.0000000949949026E-003 seconds
 ******************************************************
  
 The number of primitive pair blocks are     566
 The total number of included primitives is:    3065
 The number of primitive products to treat analytically is:    1755
 The number of primitive products to treat numerically is:    1310
  
  
 ******************** TIME CONTROL ********************
 Finished Step 3 in    4.0000001899898052E-003 seconds
 ******************************************************
  
 The one-particle density matrix is properly normalized.
  
 ******************** TIME CONTROL ********************
 Finished Step 4 in    6.0000000521540642E-003 seconds
 ******************************************************
  
 The transformation of gaussian primitives was succesful.
  
 ******************** TIME CONTROL ********************
 Finished Step 5 in    1.7999999225139618E-002 seconds
 ******************************************************
  
  
 ******************** TIME CONTROL ********************
 Finished Step 6 in    1.7999999225139618E-002 seconds
 ******************************************************
  
  
 ******************** TIME CONTROL ********************
 Before loop    5.9000000357627869E-002 seconds
 ******************************************************
  
  
 ******************** TIME CONTROL ********************
 Before interpolation    7.1529998779296875      seconds
 ******************************************************
  
 Generation of the valence and spin density for each grid point was successful.
 The maximum pair correction was:    4.1770E-04
  
 ******************** TIME CONTROL ********************
 Finished Step 7 (loop + interpolation) in    7.5219998359680176      seconds
 ******************************************************
  
 The raw number of core electrons is:    7.2289E+00
  
 ******************** TIME CONTROL ********************
 Starting add_missing_core_density
 ******************************************************
  
 center_nabc =
          75          90          81
          75         105          75
          75          75          75
 delta_na=     69
 delta_nb=     69
 delta_nc=     69
  
 ******************** TIME CONTROL ********************
 Starting check_grid_spacing
 ******************************************************
  
 The grid spacing in your electron density input file is adequate.
  
 ******************** TIME CONTROL ********************
 Finished check_grid_spacing in    4.6999998390674591E-002 seconds
 ******************************************************
  
 Checking to see that all core electrons are accounted for:
  
 Printing atom number, atomic number, core electrons, and missing core for each atom.
 (Missing core electrons will be inserted using stored core electron reference densities.)
    1    8     2.371237    0
    2    8     2.352770    0
    3    8     2.352770    0
 Finished the check for missing core electrons.
  
 ******************** TIME CONTROL ********************
 Finished add_missing_core_density in    4.6999998390674591E-002 seconds
 ******************************************************
  
  
 ******************** TIME CONTROL ********************
 Finished Step 8 in    7.6479997634887695      seconds
 ******************************************************
  
  
 ******************** TIME CONTROL ********************
 Finished generate_density_grids_from_gaussian_basis_set_coefficients in    7.6479997634887695      seconds
 ******************************************************
  
 ncore =        7.0768
 nvalence =       15.9232
 pixelvolume =    2.7440E-03
 numerically integrated valence density =    1.5923E+01
 sum_valence_occupancy_correction =    0.0000E+00
 checkme =    8.2162E-11
 The grid spacing is adequate and all electrons are properly accounted for.
 Calculation will proceed.
 Making sure the atomic coordinates for periodic directions are inside the reference unit cell.
 The adjusted atomic coordinates are
    0.0000   -0.0000    0.6030
    0.0000    2.1452   -0.3015
    0.0000   -2.1452   -0.3015
  
 The adjusted center_nabc is
          75          90          81
          75         105          75
          75          75          75
  
 ******************** TIME CONTROL ********************
 Starting core_iterator
 ******************************************************
  
 Iteratively solving for the core charge distributions:
 Iteration=   1
 change=   2.443673E+00
 Iteration=   2
 change=   8.826062E-04
 Iteration=   3
 change=   1.125206E-04
 Iteration=   4
 change=   5.979245E-05
 Iteration=   5
 change=   2.091834E-05
 Iteration=   6
 change=   7.105012E-06
 Correcting the core density grid
 iteration=            1
 iteration=            2
 iteration=            3
 Core density grid corrected in the following number of iterations: 
 iter=            3
  
 ******************** TIME CONTROL ********************
 Finished core_iterator in    1.3179999589920044      seconds
 ******************************************************
  
  
 ******************** TIME CONTROL ********************
 Starting valence_iterator
 ******************************************************
  
 Iteratively solving for the atomic partial charge distributions:
 Normalization =   1.0000000029230818     
 Information for noniterative Hirshfeld method will be printed now.
  
 ******************** TIME CONTROL ********************
 Starting local_multipole_moment_analysis
 ******************************************************
  
 Multipole analysis for each of the expansion sites.
 XYZ coordinates, net charges, and multipoles are in atomic units. Dipoles and quadrupoles are for valence electrons.
 center number, atomic number, x, y, z, net_charge, dipole_x, dipole_y, dipole_z, dipole_mag, Qxy, Qxz, Qyz, Q(x^2-y^2), Q(3z^2 - R^2),three eigenvalues of traceless quadrupole moment tensor
     1     8  0.000000 -0.000000  0.602989  0.407449 -0.000000  0.000000 -0.041173  0.041173  0.000000 -0.000000 -0.000000  0.355941  0.038363 -0.187772  0.016256  0.171516
     2     8  0.000000  2.145191 -0.301495  0.296276  0.000000 -0.004432 -0.019945  0.020432 -0.000000  0.000000 -0.057842  0.041456 -0.194855 -0.090128  0.036637  0.053491
     3     8  0.000000 -2.145191 -0.301495  0.296276  0.000000  0.004432 -0.019945  0.020432  0.000000  0.000000  0.057842  0.041456 -0.194855 -0.090128  0.036637  0.053491
  
 ******************** TIME CONTROL ********************
 Finished local_multipole_moment_analysis in    8.5000000894069672E-002 seconds
 ******************************************************
  
 Information for noniterative CM5 method will be printed now.
 The computed CM5 net atomic charges are:
     0.407449     0.296276     0.296276
 Hirshfeld and CM5 analysis finished, calculation of iterative AIM will proceed.
 iter =            1
 Localized charges for the current iteration: 
      0.436601      0.281699      0.281699
 Net atomic charges for the current iteration: 
      0.407449      0.296276      0.296276
 The updated reference ion charges will be: 
      0.426883      0.286558      0.286558
 Normalization =   1.0000000029230705     
 iter =            2
 Localized charges for the current iteration: 
      0.461056      0.269472      0.269472
 Net atomic charges for the current iteration: 
      0.441728      0.279136      0.279136
 The updated reference ion charges will be: 
      0.454613      0.272693      0.272693
  
 ******************************************************
 Finished first 2 partitioning steps in   0.71100002527236938      seconds
 ******************************************************
  
 normalization=       1.000000
  
 ******************************************************
 Finished conditioned number of reference ion electrons in   0.10899999737739563      seconds
 ******************************************************
  
  
 ******************************************************
 Finished conditioned monotonic decay of reference density in    0.0000000000000000      seconds
 ******************************************************
  
 iter = 3
 Iterations to converge reshaping: 
           1
  
 ******************************************************
 Finished tau calculation in   0.12500000000000000      seconds
 ******************************************************
  
 Conditioned reference density computation complete.
  
 ******************************************************
 Finished 3rd partitioning step in   0.23399999737739563      seconds
 This is the number of second to condition the reference densities plus the calculation of tau
 ******************************************************
  
 iteration=            4
 Normalization:   1.000000004
 Net atomic charges for the current iteration: 
      0.462934      0.268533      0.268533
 Max change:  2.120688E-02
 Maximum density change:  1.339665E+02
 Iterations to converge reshaping: 
           1
 iteration=            5
 Normalization:   1.000000005
 Net atomic charges for the current iteration: 
      0.468936      0.265532      0.265532
 Max change:  6.001600E-03
 Maximum density change:  9.174610E-04
 Iterations to converge reshaping: 
           1
 iteration=            6
 Normalization:   1.000000004
 Net atomic charges for the current iteration: 
      0.474761      0.262620      0.262620
 Max change:  5.824678E-03
 Maximum density change:  5.145623E-04
 Iterations to converge reshaping: 
           1
 iteration=            7
 Normalization:   1.000000004
 Net atomic charges for the current iteration: 
      0.482714      0.258643      0.258643
 Max change:  7.953190E-03
 Maximum density change:  3.053728E-04
  
 ******************************************************
 Finished charge partitioning steps 4-7 in   0.45399999618530273      seconds
 ******************************************************
  
  
 ******************** TIME CONTROL ********************
 Finished valence_iterator in    1.3990000486373901      seconds
 ******************************************************
  
  
 ******************** TIME CONTROL ********************
 Starting local_multipole_moment_analysis
 ******************************************************
  
 Multipole analysis for each of the expansion sites.
 XYZ coordinates, net charges, and multipoles are in atomic units. Dipoles and quadrupoles are for valence electrons.
 center number, atomic number, x, y, z, net_charge, dipole_x, dipole_y, dipole_z, dipole_mag, Qxy, Qxz, Qyz, Q(x^2-y^2), Q(3z^2 - R^2),three eigenvalues of traceless quadrupole moment tensor
     1     8  0.000000 -0.000000  0.602989  0.482714 -0.000000  0.000000 -0.127251  0.127251 -0.000000 -0.000000 -0.000000  0.040943 -0.162587 -0.050728  0.003219  0.047509
     2     8  0.000000  2.145191 -0.301495  0.258643  0.000000 -0.027857 -0.010944  0.029929  0.000000  0.000000 -0.096730 -0.074725 -0.273919 -0.128456  0.008578  0.119878
     3     8  0.000000 -2.145191 -0.301495  0.258643  0.000000  0.027857 -0.010944  0.029929 -0.000000  0.000000  0.096730 -0.074725 -0.273919 -0.128456  0.008578  0.119878
  
 ******************** TIME CONTROL ********************
 Finished local_multipole_moment_analysis in    8.5000000894069672E-002 seconds
 ******************************************************
  
 center_of_mass:   0.000000 -0.000000 -0.000000
  
 Since the system is nonperiodic, total multipole moment analysis will be performed.
 Total multipole moments are computed using the center of mass as the origin.
 Dipole and quadrupole moments using the net atomic charges.
 This corresponds to truncatating the distributed multipole expansion at monopole order.
 partial_charge_dipole_x=      0.000000
 partial_charge_dipole_y=      0.000000
 partial_charge_dipole_z=      0.135112
 partial_charge_dipole_magnitude     0.135112
 partial_charge_quadrupole_xy=      0.000000
 partial_charge_quadrupole_xz=      0.000000
 partial_charge_quadrupole_yz=     -0.000000
 partial_charge_quadrupole_x2minusy2=     -2.380469
 partial_charge_quadrupole_3z2minusr2=     -1.935402
 Dipole and quadrupole moments using the net atomic charges and the atomic dipoles.
 This corresponds to truncatating the distributed multipole expansion at dipole order.
 dipole_x=     -0.000000
 dipole_y=      0.000000
 dipole_z =     -0.014026
 dipole_magnitude=      0.014026
 quadrupole_xy=      0.000000
 quadrupole_xz=     -0.000000
 quadrupole_yz=      0.000000
 quadrupole_x2minusy2=     -2.141438
 quadrupole_3z2minusr2 =     -1.976900
 Dipole and quadrupole moments using the net atomic charges, atomic dipoles, and atomic quadrupoles.
 This corresponds to truncatating the distributed multipole expansion at quadrupole order.
 dipole_x=     -0.000000
 dipole_y=      0.000000
 dipole_z=     -0.014026
 dipole_magnitude=    1.4026375979352582E-002
 full_quadrupole_xy=     -0.000000
 full_quadrupole_xz=      0.000000
 full_quadrupole_yz=     -0.000000
 full_quadrupole_x2minusy2=     -2.249945
 full_quadrupole_3z2minusr2 =     -2.687325
 Calculation of the electron cloud penetration terms
  
 ******************** TIME CONTROL ********************
 Starting collinear_spin_moments_iterator
 ******************************************************
  
 Iteratively solving for the atomic spin distributions:
 iteration:            1
 spin_population:   0.21174813666299652       0.39412592821019010       0.39412592983664091     
 tot_spin_moment:   0.99999999470982748     
 max_change:   0.39412592983664091     
  
 iteration:            2
 spin_population:   0.20387780178736811       0.39805963323568772       0.39805963546078255     
 tot_spin_moment:   0.99999707048383835     
 max_change:    7.8703348756284097E-003
  
 iteration:            3
 spin_population:   0.20220846866103309       0.39889591055733309       0.39889591294854865     
 tot_spin_moment:    1.0000002921669147     
 max_change:    1.6693331263350208E-003
  
 iteration:            4
 spin_population:   0.20177100449470067       0.39911425186653410       0.39911425432941422     
 tot_spin_moment:   0.99999951069064896     
 max_change:    4.3746416633241858E-004
  
 iteration:            5
 spin_population:   0.20164565819433664       0.39917722005726730       0.39917722253133620     
 tot_spin_moment:    1.0000001007829402     
 max_change:    1.2534630036403760E-004
  
 iteration:            6
 spin_population:   0.20160724176049907       0.39919631572443470       0.39919631820739993     
 tot_spin_moment:   0.99999987569233362     
 max_change:    3.8416433837562547E-005
  
 iteration:            7
 spin_population:   0.20159497502714885       0.39920251224079700       0.39920251472358975     
 tot_spin_moment:    1.0000000019915356     
 max_change:    1.2266733350224657E-005
  
 Final spin populations:   0.20159497502714885       0.39920251224079700       0.39920251472358975     
 The total spin moment of the unit cell is:    1.0000000019915356     
  
  
 ******************** TIME CONTROL ********************
 Finished collinear_spin_moments_iterator in    2.2320001125335693      seconds
 ******************************************************
  
  
 ******************** TIME CONTROL ********************
 Starting perform_BO_analysis
 ******************************************************
  
 Starting Effective Bond Order (BO) Analysis
  
 ******************** TIME CONTROL ********************
 Starting prepare_BO_density_grids
 ******************************************************
  
 Preparing density grids for bond order analysis ...
 Total density grid corrected in the following number of iterations:     1
 The total integrated number of electrons is       23.000000
 Grid preparation complete.
  
 ******************** TIME CONTROL ********************
 Finished prepare_BO_density_grids in    7.8000001609325409E-002 seconds
 ******************************************************
  
  
 ******************** TIME CONTROL ********************
 Starting compute_local_atomic_exchange_vectors
 ******************************************************
  
  
 ******************** TIME CONTROL ********************
 Finished compute_local_atomic_exchange_vectors in   0.16200000047683716      seconds
 ******************************************************
  
  
 ******************** TIME CONTROL ********************
 Starting initialize_bond_pair_matrix
 ******************************************************
  
 Initializing the bond pair matrix ...
 The total number of symmetry unique atom pairs to include in the bond pair matrix is
 num_sym_unique_bond_pairs:      3
 The bond pair matrix has been initialized.
  
 ******************** TIME CONTROL ********************
 Finished initialize_bond_pair_matrix in    3.0000000260770321E-003 seconds
 ******************************************************
  
  
 ******************** TIME CONTROL ********************
 Starting compute_summed_contact_exchange
 ******************************************************
  
  
 ******************** TIME CONTROL ********************
 Finished compute_summed_contact_exchange in    6.8000003695487976E-002 seconds
 ******************************************************
  
  
 ******************** TIME CONTROL ********************
 Starting integrate_bonding_terms
 ******************************************************
  
  
 ******************** TIME CONTROL ********************
 Finished integrate_bonding_terms in    9.6000000834465027E-002 seconds
 ******************************************************
  
  
 ******************** TIME CONTROL ********************
 Starting calculate_final_BOs
 ******************************************************
  
 Checking for consistency in the summed contact exchange
 The maximum error in the summed contact exchange is     0.000000
  
 The sum of contact exchanges for each atom are:
    1.788593
    0.922439
    0.922439
  
 The sum of BOs for each atom are:
    2.859091
    1.459862
    1.459862
  
 The final bond pair matrix is
     1     2    0.000000    0.000000    0.000000    6.000000  144.000000   36.000000  159.000000   12.000000  144.000000    0.894296    0.896443    0.891741    0.402850    0.998331    0.536144    0.535249    1.429545    1.429545
     1     3    0.000000    0.000000    0.000000    6.000000  144.000000   21.000000  144.000000   12.000000  144.000000    0.894296    0.896443    0.891741    0.402850    0.998331    0.536144    0.535249    1.429545    1.429545
     2     3    0.000000    0.000000    0.000000    6.000000  144.000000   36.000000  144.000000    6.000000  144.000000    0.028142    0.028222    0.030892    0.002042    0.999977    0.002174    0.002174    0.030316    0.030316
 The legend for the bond pair matrix follows:
 Columns 1 and 2 = atom numbers
 Columns 3 to 5 = repeata, repeatb, repeatc (i.e., periodic translation of second atom)
 Columns 6 to 11 = corners of the shared parallepiped: min na, max na, min nb, max nb, min nc, max nc
 Columns 12 =  contact exchange
 Columns 13 =  a term for computing average spin polarization of bonding
 Columns 14 =  overlap population
 Columns 15 =  the integrated second order atomic exchange propensities for computing bond order
 Columns 16 =  the coordination term constructed from tanh function
 Columns 17 =  the pairwise term
 Columns 18 =  expansion term combining coordination and pairwise terms
 Columns 19 =  bond index before imposing the atom self-exchange constraint
 Columns 20 =  final bond order
 
 The atom self-exchange constraint affected (by at least 0.1_dp*BO_print_cutoff)      0 bond orders.
 
  
 ******************** TIME CONTROL ********************
 Finished calculate_final_BOs in    4.0000001899898052E-003 seconds
 ******************************************************
  
 Bond order analysis complete.
  
 ******************** TIME CONTROL ********************
 Finished perform_BO_analysis in   0.41100001335144043      seconds
 ******************************************************
  
 The computed Rsquared moments of the atoms (in bohr^2) are: 
     9.165248     9.779784     9.779785
 The computed Rcubed moments of the atoms (in bohr^3) are: 
    16.171495    17.265805    17.265806
 The computed Rfourth moments of the atoms (in bohr^4) are: 
    34.563270    36.604245    36.604250
 Normal termination of Chargemol program.
 Copyright (c) 2014, 2015, 2016, 2017 by Thomas A. Manz and Nidia Gabaldon Limas. Rights reserved.
 Use and distribution of this program is subject to certain licensing restrictions.
 Please see ddec.sourceforge.net for details.
  
 Please cite the following journal references when using this program to compute DDEC6 charges:
 N. Gabaldon Limas and T. A. Manz,  "Introducing DDEC6 atomic population analysis: part 2. 
 Computed results for a wide range of periodic and nonperiodic materials," RSC Advances, Vol. 6 (2016) 45727-45747.
 T. A. Manz and N. Gabaldon Limas, "Introducing DDEC6 atomic population analysis: part 1.
 Charge partitioning theory and methodology," RSC Advances, Vol. 6 (2016) 47771-47801.
 If desired, you can also cite references listed below for the DDEC3 and earlier methods.
  
 Please cite the following journal references when using this program to compute DDEC, Hirshfeld, or ISA charges:
 Thomas A. Manz and David S. Sholl, "Improved Atoms-in-Molecule Charge Partitioning Functional for Simultaneously Reproducing the Electrostatic
 Potential and Chemical States in Periodic and Non-Periodic Materials", J. Chem. Theory Comput., Vol. 8 (2012) 2844-2867.
 Thomas A. Manz and David S. Sholl, "Chemically Meaningful Atomic Charges that Reproduce the Electrostatic Potential in Periodic and Nonperiodic
 Materials", J. Chem. Theory Comput., Vol. 6 (2010) 2455-2468.
  
 Please cite the following journal reference when using this program to compute atomic spin moments:
 Thomas A. Manz and David S. Sholl, "Methods for Computing Accurate Atomic Spin Moments for Collinear and Noncollinear Magnetism in Periodic and
 Nonperiodic Materials", J. Chem. Theory Comput., Vol. 7 (2011) 4146-4164.
  
 Please cite the following reference when using this program to compute bond orders:
 Thomas A. Manz, "Introducing DDEC6 atomic population analysis: part 3. Comprehensive method to compute bond orders.", RSC Advances, Vol. 7 (2017) 45552-45581.
  
 Exiting Chargemol
 2017/10/01  14:19:11
  
 ******************** TIME CONTROL ********************
 Finished chargemol in    13.262000083923340      seconds
 ******************************************************
  
