    3
Nonperiodic system
O      0.000000    -0.000000     0.579101     0.236291
O      0.000000     0.990774    -0.289550    -0.118146
O      0.000000    -0.990774    -0.289550    -0.118146
 
 Chargemol version 3.5 September 26, 2017.
See ddec.sourceforge.net for latest version.
 
Computational parameters:
Number of radial integration shells =    100
Cutoff radius (pm) =    500
Error in the integrated total number of electrons before renormalization (e) =    1.0902E-10
Charge convergence tolerance =    1.0000E-05
Minimum radius for electron cloud penetration fitting (pm) =    200
Minimum decay exponent for electron density of buried atom tails =   1.7500
Maximum decay exponent for electron density of buried atom tails =  2.5000
Number of iterations to convergence =      7
 
The following XYZ coordinates are in angstroms. The atomic dipoles and quadrupoles are in atomic units.
atom number, atomic symbol, x, y, z, net_charge, dipole_x, dipole_y, dipole_z, dipole_mag, Qxy, Qxz, Qyz,Q(x^2-y^2), Q(3z^2 - R^2), three eigenvalues of traceless quadrupole moment tensor
    1 O      0.000000    -0.000000     0.579101     0.236291    -0.000000    -0.000000    -0.163687     0.163687     0.000000     0.000000    -0.000000    -0.183066    -0.172401    -0.060829    -0.057167     0.117996
    2 O      0.000000     0.990774    -0.289550    -0.118146     0.000000    -0.005117     0.049358     0.049622     0.000000     0.000000    -0.120924    -0.321009     0.070709    -0.169806    -0.049235     0.219041
    3 O      0.000000    -0.990774    -0.289550    -0.118146     0.000000     0.005117     0.049358     0.049622    -0.000000     0.000000     0.120924    -0.321009     0.070709    -0.169806    -0.049235     0.219041
 
The sperically averaged electron density of each atom fit to a function of the form exp(a - br) for r >=rmin_cloud_penetration
atom number,atomic symbol, x, y, z, a, b, Rsquared where a and b are in atomic units and Rsquared is the squared correlation coefficient
    1 O      0.000000    -0.000000     0.579101    -1.549516     1.990687     0.983099
    2 O      0.000000     0.990774    -0.289550    -1.948184     1.804131     0.989254
    3 O      0.000000    -0.990774    -0.289550    -1.948185     1.804131     0.989254
 
  
 Since the system is non-periodic, the total dipole and quadrupole moments were computed relative to the system center of mass.
 Multipole moments (in atomic units) using the net atomic charges:
 Partial_charge_dipole_x =    0.0000   Partial_charge_dipole_y =    0.0000   Partial_charge_dipole_z =    0.3879     Partial_charge_dipole_magnitude =    0.3879
 Partial_charge_quadrupole_xy =    0.0000   Partial_charge_quadrupole_xz =    0.0000   Partial_charge_quadrupole_yz =   -0.0000   Partial_charge_quadrupole_x2minusy2 =    0.8283   Partial_charge_quadrupole_3z2minusr2 =    1.2528
 Eigenvalues of traceless quadrupole moment tensor =   -0.6230   0.2054   0.4176
 Multipole moments (in atomic units) using the net atomic charges and atomic dipoles:
 Dipole_x =   -0.0000   Dipole_y =    0.0000   Dipole_z =    0.3229   Dipole_magnitude =    0.3229
 Quadrupole_xy =   -0.0000   Quadrupole_xz =   -0.0000   Quadrupole_yz =   -0.0000   Quadrupole_x2minusy2 =    0.8666   Quadrupole_3z2minusr2 =    0.3585
 Eigenvalues of traceless quadrupole moment tensor =   -0.4931   0.1195   0.3736
 Multipole moments (in atomic units) using the net atomic charges, atomic dipoles, and atomic quadrupoles:
 Dipole_x =   -0.0000   Dipole_y =    0.0000   Dipole_z =    0.3229   Dipole_magnitude =    0.3229
 Full_quadrupole_xy =    0.0000   Full_quadrupole_xz =    0.0000   Full_quadrupole_yz =   -0.0000   Full_quadrupole_x2minusy2 =    0.0416   Full_quadrupole_3z2minusr2 =    0.3275
 Eigenvalues of traceless quadrupole moment tensor =   -0.0754  -0.0338   0.1092
  
 2017/09/30  19:57:40
