    3
Nonperiodic system
O       0.000000    -0.000000     0.319088    33.815830
O       0.000000     1.135186    -0.159544    36.191787
O       0.000000    -1.135186    -0.159544    36.191827
  
Same information as above printed with atom number.
   1 O      0.000000    -0.000000     0.319088    33.815830
   2 O      0.000000     1.135186    -0.159544    36.191787
   3 O      0.000000    -1.135186    -0.159544    36.191827
