   30
jmolscript: load "" {1 1 1} spacegroup "x,y,z" unitcell [{      0.000000     2.829447     2.829447 }, {      2.829447     0.000000     2.829447 }, {      2.829447     2.829447     0.000000 }]
atom1, atom2, translation A, translation B, translation C, overlap population
     1      2     -1     -1      0      0.0529532794
     2      1      1      1      0      0.0529532794
     1      2     -1      0     -1      0.0529532794
     2      1      1      0      1      0.0529532794
     1      2     -1      0      0      0.0529532794
     2      1      1      0      0      0.0529532794
     1      2      0     -1     -1      0.0529532794
     2      1      0      1      1      0.0529532794
     1      2      0     -1      0      0.0529532794
     2      1      0      1      0      0.0529532794
     1      2      0      0     -1      0.0529532794
     2      1      0      0      1      0.0529532794
     2      2      0      0      1      0.0381004645
     2      2      0      0     -1      0.0381004645
     2      2      0      1     -1      0.0381004422
     2      2      0     -1      1      0.0381004422
     2      2      0      1      0      0.0381004645
     2      2      0     -1      0      0.0381004645
     2      2      1     -1     -1      0.0002492659
     2      2     -1      1      1      0.0002492659
     2      2      1     -1      0      0.0381004422
     2      2     -1      1      0      0.0381004422
     2      2      1     -1      1      0.0002492659
     2      2     -1      1     -1      0.0002492659
     2      2      1      0     -1      0.0381004422
     2      2     -1      0      1      0.0381004422
     2      2      1      0      0      0.0381004645
     2      2     -1      0      0      0.0381004645
     2      2      1      1     -1      0.0002492659
     2      2     -1     -1      1      0.0002492659
  
