    3
Nonperiodic system
O       0.000000    -0.000000     0.582650    10.389275
O       0.000000     1.029479    -0.291325    11.794384
O       0.000000    -1.029479    -0.291325    11.794384
  
Same information as above printed with atom number.
   1 O      0.000000    -0.000000     0.582650    10.389275
   2 O      0.000000     1.029479    -0.291325    11.794384
   3 O      0.000000    -1.029479    -0.291325    11.794384
