  
 ******************** TIME CONTROL ********************
 Starting Chargemol version 3.5 September 26, 2017.
 ******************************************************
  
 Starting DDEC program
 2017/10/01  14:04:46
 Copyright (c) 2014, 2015, 2016 by Thomas A. Manz and Nidia Gabaldon Limas. Rights reserved.
  
 **************** THREAD INFORMATION ******************
 Job running using OpenMP.
 The number of parallel threads is:            4
  
 ******************************************************
  
 /home/tamanz/bin/atomic_densities/                                                                                                                                                                      
 GTO basis set type is supported. Calculation will proceed.
 ncenters=     3
 norbitals=      24
 netcharge= 0.00
 nprimitives=   108
 Natural orbital occupation numbers for alpha (1st column) and beta (2nd column) electrons.
      1.0000      0.0000
      1.0000      0.0000
      1.0000      0.0000
      1.0000      0.0000
      1.0000      0.0000
      1.0000      0.0000
      1.0000      0.0000
      1.0000      0.0000
      1.0000      0.0000
      1.0000      0.0000
      1.0000      0.0000
      1.0000      0.0000
      1.0000      0.0000
      0.0000      1.0000
      0.0000      1.0000
      0.0000      1.0000
      0.0000      1.0000
      0.0000      1.0000
      0.0000      1.0000
      0.0000      1.0000
      0.0000      1.0000
      0.0000      1.0000
      0.0000      1.0000
      0.0000      1.0000
 The total number of electrons in natural orbitals is
 included electrons=      24
 Sorting the basis set primitives:
 natoms=     3
 The number of valence electrons is consistent with the sum of orbital occupations.
  
 ******************** TIME CONTROL ********************
 Starting generate_density_grids_from_gaussian_basis_set_coefficients
 ******************************************************
  
    0.1400    0.0000    0.0000
    0.0000    0.1400    0.0000
    0.0000    0.0000    0.1400
 Initial setup of atoms using temporary origin (0,0,0)
 center_nabc =
           0           0           8
           0          14          -4
           0         -14          -4
 delta_na=     69
 delta_nb=     69
 delta_nc=     69
 Compute a better origin and number of grid points along each grid direction
 totnumA=     168
 totnumB=     192
 totnumC=     168
 The new origin is
  -10.5000  -12.4600  -11.0600
 Compute atomic positions using the better origin
 center_nabc =
          75          89          87
          75         103          75
          75          75          75
 Making sure the atomic coordinates for periodic directions are inside the reference unit cell.
 The adjusted atomic coordinates are
    0.0000   -0.0000    1.1010
    0.0000    1.9454   -0.5505
    0.0000   -1.9454   -0.5505
  
 The adjusted center_nabc is
          75          89          87
          75         103          75
          75          75          75
 nimages=       1
  
 ******************** TIME CONTROL ********************
 Finished Step 1 in    3.9999999105930328E-002 seconds.
 ******************************************************
  
 Setup of grid points was successful.
  
 ******************** TIME CONTROL ********************
 Finished Step 2 in    4.1000001132488251E-002 seconds
 ******************************************************
  
 The number of primitive pair blocks are     560
 The total number of included primitives is:    3072
 The number of primitive products to treat analytically is:    1760
 The number of primitive products to treat numerically is:    1312
  
  
 ******************** TIME CONTROL ********************
 Finished Step 3 in    4.3000001460313797E-002 seconds
 ******************************************************
  
 The one-particle density matrix is properly normalized.
  
 ******************** TIME CONTROL ********************
 Finished Step 4 in    4.5000001788139343E-002 seconds
 ******************************************************
  
 The transformation of gaussian primitives was succesful.
  
 ******************** TIME CONTROL ********************
 Finished Step 5 in    5.7999998331069946E-002 seconds
 ******************************************************
  
  
 ******************** TIME CONTROL ********************
 Finished Step 6 in    5.9999998658895493E-002 seconds
 ******************************************************
  
  
 ******************** TIME CONTROL ********************
 Before loop   0.10000000149011612      seconds
 ******************************************************
  
  
 ******************** TIME CONTROL ********************
 Before interpolation    6.2870001792907715      seconds
 ******************************************************
  
 Generation of the valence and spin density for each grid point was successful.
 The maximum pair correction was:    3.1550E-05
  
 ******************** TIME CONTROL ********************
 Finished Step 7 (loop + interpolation) in    6.6529998779296875      seconds
 ******************************************************
  
 The raw number of core electrons is:    7.8396E+00
  
 ******************** TIME CONTROL ********************
 Starting add_missing_core_density
 ******************************************************
  
 center_nabc =
          75          89          87
          75         103          75
          75          75          75
 delta_na=     69
 delta_nb=     69
 delta_nc=     69
  
 ******************** TIME CONTROL ********************
 Starting check_grid_spacing
 ******************************************************
  
 The grid spacing in your electron density input file is adequate.
  
 ******************** TIME CONTROL ********************
 Finished check_grid_spacing in    4.6000000089406967E-002 seconds
 ******************************************************
  
 Checking to see that all core electrons are accounted for:
  
 Printing atom number, atomic number, core electrons, and missing core for each atom.
 (Missing core electrons will be inserted using stored core electron reference densities.)
    1    8     2.363868    0
    2    8     2.368665    0
    3    8     2.368665    0
 Finished the check for missing core electrons.
  
 ******************** TIME CONTROL ********************
 Finished add_missing_core_density in    4.6000000089406967E-002 seconds
 ******************************************************
  
  
 ******************** TIME CONTROL ********************
 Finished Step 8 in    6.7709999084472656      seconds
 ******************************************************
  
  
 ******************** TIME CONTROL ********************
 Finished generate_density_grids_from_gaussian_basis_set_coefficients in    6.7829999923706055      seconds
 ******************************************************
  
 ncore =        7.1012
 nvalence =       16.8988
 pixelvolume =    2.7440E-03
 numerically integrated valence density =    1.6899E+01
 sum_valence_occupancy_correction =    0.0000E+00
 checkme =    6.7949E-11
 The grid spacing is adequate and all electrons are properly accounted for.
 Calculation will proceed.
 Making sure the atomic coordinates for periodic directions are inside the reference unit cell.
 The adjusted atomic coordinates are
    0.0000   -0.0000    1.1010
    0.0000    1.9454   -0.5505
    0.0000   -1.9454   -0.5505
  
 The adjusted center_nabc is
          75          89          87
          75         103          75
          75          75          75
  
 ******************** TIME CONTROL ********************
 Starting core_iterator
 ******************************************************
  
 Iteratively solving for the core charge distributions:
 Iteration=   1
 change=   2.619647E+00
 Iteration=   2
 change=   1.403669E-04
 Iteration=   3
 change=   3.422326E-05
 Iteration=   4
 change=   1.377686E-05
 Iteration=   5
 change=   4.104519E-06
 Iteration=   6
 change=   1.209346E-06
 Correcting the core density grid
 iteration=            1
 iteration=            2
 iteration=            3
 iteration=            4
 Core density grid corrected in the following number of iterations: 
 iter=            4
  
 ******************** TIME CONTROL ********************
 Finished core_iterator in    1.4809999465942383      seconds
 ******************************************************
  
  
 ******************** TIME CONTROL ********************
 Starting valence_iterator
 ******************************************************
  
 Iteratively solving for the atomic partial charge distributions:
 Normalization =   1.0000000144318684     
 Information for noniterative Hirshfeld method will be printed now.
  
 ******************** TIME CONTROL ********************
 Starting local_multipole_moment_analysis
 ******************************************************
  
 Multipole analysis for each of the expansion sites.
 XYZ coordinates, net charges, and multipoles are in atomic units. Dipoles and quadrupoles are for valence electrons.
 center number, atomic number, x, y, z, net_charge, dipole_x, dipole_y, dipole_z, dipole_mag, Qxy, Qxz, Qyz, Q(x^2-y^2), Q(3z^2 - R^2),three eigenvalues of traceless quadrupole moment tensor
     1     8  0.000000 -0.000000  1.101049  0.110977  0.000000 -0.000000 -0.118775  0.118775 -0.000000 -0.000000 -0.000000 -0.137586 -0.138402 -0.046309 -0.040298  0.086607
     2     8  0.000000  1.945434 -0.550524 -0.055488 -0.000000 -0.074223  0.114542  0.136487 -0.000000 -0.000000 -0.119091 -0.316971  0.074430 -0.165450 -0.046224  0.211675
     3     8  0.000000 -1.945434 -0.550524 -0.055488 -0.000000  0.074223  0.114542  0.136487  0.000000 -0.000000  0.119091 -0.316971  0.074430 -0.165450 -0.046224  0.211675
  
 ******************** TIME CONTROL ********************
 Finished local_multipole_moment_analysis in    8.2000002264976501E-002 seconds
 ******************************************************
  
 Information for noniterative CM5 method will be printed now.
 The computed CM5 net atomic charges are:
     0.110977    -0.055488    -0.055488
 Hirshfeld and CM5 analysis finished, calculation of iterative AIM will proceed.
 iter =            1
 Localized charges for the current iteration: 
      0.151597     -0.075801     -0.075801
 Net atomic charges for the current iteration: 
      0.110977     -0.055488     -0.055488
 The updated reference ion charges will be: 
      0.138057     -0.069030     -0.069030
 Normalization =   1.0000000144318650     
 iter =            2
 Localized charges for the current iteration: 
      0.183107     -0.091556     -0.091556
 Net atomic charges for the current iteration: 
      0.159729     -0.079864     -0.079864
 The updated reference ion charges will be: 
      0.175314     -0.087659     -0.087659
  
 ******************************************************
 Finished first 2 partitioning steps in   0.67900002002716064      seconds
 ******************************************************
  
 normalization=       1.000000
  
 ******************************************************
 Finished conditioned number of reference ion electrons in   0.10800000280141830      seconds
 ******************************************************
  
  
 ******************************************************
 Finished conditioned monotonic decay of reference density in    0.0000000000000000      seconds
 ******************************************************
  
 iter = 3
 Iterations to converge reshaping: 
           1
  
 ******************************************************
 Finished tau calculation in   0.11999999731779099      seconds
 ******************************************************
  
 Conditioned reference density computation complete.
  
 ******************************************************
 Finished 3rd partitioning step in   0.23100000619888306      seconds
 This is the number of second to condition the reference densities plus the calculation of tau
 ******************************************************
  
 iteration=            4
 Normalization:   1.000000014
 Net atomic charges for the current iteration: 
      0.188461     -0.094230     -0.094230
 Max change:  2.873216E-02
 Maximum density change:  1.483682E+02
 Iterations to converge reshaping: 
           1
 iteration=            5
 Normalization:   1.000000014
 Net atomic charges for the current iteration: 
      0.198519     -0.099259     -0.099259
 Max change:  1.005826E-02
 Maximum density change:  9.759168E-04
 Iterations to converge reshaping: 
           1
 iteration=            6
 Normalization:   1.000000014
 Net atomic charges for the current iteration: 
      0.207693     -0.103847     -0.103847
 Max change:  9.174428E-03
 Maximum density change:  5.156624E-04
 Iterations to converge reshaping: 
           1
 iteration=            7
 Normalization:   1.000000014
 Net atomic charges for the current iteration: 
      0.215330     -0.107665     -0.107665
 Max change:  7.637083E-03
 Maximum density change:  2.965684E-04
  
 ******************************************************
 Finished charge partitioning steps 4-7 in   0.44600000977516174      seconds
 ******************************************************
  
  
 ******************** TIME CONTROL ********************
 Finished valence_iterator in    1.3559999465942383      seconds
 ******************************************************
  
  
 ******************** TIME CONTROL ********************
 Starting local_multipole_moment_analysis
 ******************************************************
  
 Multipole analysis for each of the expansion sites.
 XYZ coordinates, net charges, and multipoles are in atomic units. Dipoles and quadrupoles are for valence electrons.
 center number, atomic number, x, y, z, net_charge, dipole_x, dipole_y, dipole_z, dipole_mag, Qxy, Qxz, Qyz, Q(x^2-y^2), Q(3z^2 - R^2),three eigenvalues of traceless quadrupole moment tensor
     1     8  0.000000 -0.000000  1.101049  0.215330  0.000000 -0.000000 -0.214687  0.214687 -0.000000 -0.000000 -0.000000 -0.253359 -0.163831 -0.093946 -0.054786  0.148732
     2     8  0.000000  1.945434 -0.550524 -0.107665 -0.000000 -0.045530  0.076323  0.088872 -0.000000 -0.000000 -0.105973 -0.344922  0.033472 -0.172599 -0.040587  0.213186
     3     8  0.000000 -1.945434 -0.550524 -0.107665 -0.000000  0.045530  0.076323  0.088872  0.000000 -0.000000  0.105973 -0.344922  0.033472 -0.172599 -0.040587  0.213186
  
 ******************** TIME CONTROL ********************
 Finished local_multipole_moment_analysis in    9.3999996781349182E-002 seconds
 ******************************************************
  
 center_of_mass:   0.000000 -0.000000  0.000000
  
 Since the system is nonperiodic, total multipole moment analysis will be performed.
 Total multipole moments are computed using the center of mass as the origin.
 Dipole and quadrupole moments using the net atomic charges.
 This corresponds to truncatating the distributed multipole expansion at monopole order.
 partial_charge_dipole_x=      0.000000
 partial_charge_dipole_y=      0.000000
 partial_charge_dipole_z=      0.355634
 partial_charge_dipole_magnitude     0.355634
 partial_charge_quadrupole_xy=      0.000000
 partial_charge_quadrupole_xz=      0.000000
 partial_charge_quadrupole_yz=     -0.000000
 partial_charge_quadrupole_x2minusy2=      0.814964
 partial_charge_quadrupole_3z2minusr2=      1.206534
 Dipole and quadrupole moments using the net atomic charges and the atomic dipoles.
 This corresponds to truncatating the distributed multipole expansion at dipole order.
 dipole_x=     -0.000000
 dipole_y=      0.000000
 dipole_z =      0.293594
 dipole_magnitude=      0.293594
 quadrupole_xy=     -0.000000
 quadrupole_xz=      0.000000
 quadrupole_yz=     -0.000000
 quadrupole_x2minusy2=      1.169269
 quadrupole_3z2minusr2 =      0.279174
 Dipole and quadrupole moments using the net atomic charges, atomic dipoles, and atomic quadrupoles.
 This corresponds to truncatating the distributed multipole expansion at quadrupole order.
 dipole_x=     -0.000000
 dipole_y=      0.000000
 dipole_z=      0.293594
 dipole_magnitude=   0.29359392187349548     
 full_quadrupole_xy=     -0.000000
 full_quadrupole_xz=      0.000000
 full_quadrupole_yz=     -0.000000
 full_quadrupole_x2minusy2=      0.226066
 full_quadrupole_3z2minusr2 =      0.182287
 Calculation of the electron cloud penetration terms
  
 ******************** TIME CONTROL ********************
 Starting collinear_spin_moments_iterator
 ******************************************************
  
 Iteratively solving for the atomic spin distributions:
 iteration:            1
 spin_population:   0.39657564383888788       0.80171215947401242       0.80171216001757284     
 tot_spin_moment:    1.9999999633304730     
 max_change:   0.80171216001757284     
  
 iteration:            2
 spin_population:   0.37984017855192626       0.81007228955564747       0.81007229043765561     
 tot_spin_moment:    1.9999847585452293     
 max_change:    1.6735465286961626E-002
  
 iteration:            3
 spin_population:   0.37663501837257651       0.81168353169838869       0.81168353264811066     
 tot_spin_moment:    2.0000020827190759     
 max_change:    3.2051601793497420E-003
  
 iteration:            4
 spin_population:   0.37589758694583908       0.81204999961407565       0.81205000057660004     
 tot_spin_moment:    1.9999975871365148     
 max_change:    7.3743142673743378E-004
  
 iteration:            5
 spin_population:   0.37571354978421390       0.81214359134052549       0.81214359230304356     
 tot_spin_moment:    2.0000007334277830     
 max_change:    1.8403716162518347E-004
  
 iteration:            6
 spin_population:   0.37566408071905766       0.81216770690197837       0.81216770786554593     
 tot_spin_moment:    1.9999994954865818     
 max_change:    4.9469065156237946E-005
  
 iteration:            7
 spin_population:   0.37565038474194534       0.81217488704848384       0.81217488801172166     
 tot_spin_moment:    2.0000001598021511     
 max_change:    1.3695977112315738E-005
  
 Final spin populations:   0.37565038474194534       0.81217488704848384       0.81217488801172166     
 The total spin moment of the unit cell is:    2.0000001598021511     
  
  
 ******************** TIME CONTROL ********************
 Finished collinear_spin_moments_iterator in    2.4000000953674316      seconds
 ******************************************************
  
  
 ******************** TIME CONTROL ********************
 Starting perform_BO_analysis
 ******************************************************
  
 Starting Effective Bond Order (BO) Analysis
  
 ******************** TIME CONTROL ********************
 Starting prepare_BO_density_grids
 ******************************************************
  
 Preparing density grids for bond order analysis ...
 Total density grid corrected in the following number of iterations:     1
 The total integrated number of electrons is       24.000000
 Grid preparation complete.
  
 ******************** TIME CONTROL ********************
 Finished prepare_BO_density_grids in    7.5000002980232239E-002 seconds
 ******************************************************
  
  
 ******************** TIME CONTROL ********************
 Starting compute_local_atomic_exchange_vectors
 ******************************************************
  
  
 ******************** TIME CONTROL ********************
 Finished compute_local_atomic_exchange_vectors in   0.15899999439716339      seconds
 ******************************************************
  
  
 ******************** TIME CONTROL ********************
 Starting initialize_bond_pair_matrix
 ******************************************************
  
 Initializing the bond pair matrix ...
 The total number of symmetry unique atom pairs to include in the bond pair matrix is
 num_sym_unique_bond_pairs:      3
 The bond pair matrix has been initialized.
  
 ******************** TIME CONTROL ********************
 Finished initialize_bond_pair_matrix in    3.0000000260770321E-003 seconds
 ******************************************************
  
  
 ******************** TIME CONTROL ********************
 Starting compute_summed_contact_exchange
 ******************************************************
  
  
 ******************** TIME CONTROL ********************
 Finished compute_summed_contact_exchange in    6.3000001013278961E-002 seconds
 ******************************************************
  
  
 ******************** TIME CONTROL ********************
 Starting integrate_bonding_terms
 ******************************************************
  
  
 ******************** TIME CONTROL ********************
 Finished integrate_bonding_terms in    9.0999998152256012E-002 seconds
 ******************************************************
  
  
 ******************** TIME CONTROL ********************
 Starting calculate_final_BOs
 ******************************************************
  
 Checking for consistency in the summed contact exchange
 The maximum error in the summed contact exchange is     0.000000
  
 The sum of contact exchanges for each atom are:
    1.546862
    0.912215
    0.912215
  
 The sum of BOs for each atom are:
    2.375667
    1.363235
    1.363235
  
 The final bond pair matrix is
     1     2    0.000000    0.000000    0.000000    6.000000  144.000000   34.000000  158.000000   18.000000  144.000000    0.773431    0.779470    0.767591    0.315818    0.997318    0.415517    0.414402    1.187834    1.187834
     1     3    0.000000    0.000000    0.000000    6.000000  144.000000   20.000000  144.000000   18.000000  144.000000    0.773431    0.779470    0.767591    0.315818    0.997318    0.415517    0.414402    1.187834    1.187834
     2     3    0.000000    0.000000    0.000000    6.000000  144.000000   34.000000  144.000000    6.000000  144.000000    0.138784    0.140055    0.141136    0.033433    0.999285    0.036643    0.036617    0.175401    0.175401
 The legend for the bond pair matrix follows:
 Columns 1 and 2 = atom numbers
 Columns 3 to 5 = repeata, repeatb, repeatc (i.e., periodic translation of second atom)
 Columns 6 to 11 = corners of the shared parallepiped: min na, max na, min nb, max nb, min nc, max nc
 Columns 12 =  contact exchange
 Columns 13 =  a term for computing average spin polarization of bonding
 Columns 14 =  overlap population
 Columns 15 =  the integrated second order atomic exchange propensities for computing bond order
 Columns 16 =  the coordination term constructed from tanh function
 Columns 17 =  the pairwise term
 Columns 18 =  expansion term combining coordination and pairwise terms
 Columns 19 =  bond index before imposing the atom self-exchange constraint
 Columns 20 =  final bond order
 
 The atom self-exchange constraint affected (by at least 0.1_dp*BO_print_cutoff)      0 bond orders.
 
  
 ******************** TIME CONTROL ********************
 Finished calculate_final_BOs in    4.0000001899898052E-003 seconds
 ******************************************************
  
 Bond order analysis complete.
  
 ******************** TIME CONTROL ********************
 Finished perform_BO_analysis in   0.40500000119209290      seconds
 ******************************************************
  
 The computed Rsquared moments of the atoms (in bohr^2) are: 
    10.389275    11.794384    11.794384
 The computed Rcubed moments of the atoms (in bohr^3) are: 
    19.469035    23.043434    23.043434
 The computed Rfourth moments of the atoms (in bohr^4) are: 
    44.704566    55.086693    55.086694
 Normal termination of Chargemol program.
 Copyright (c) 2014, 2015, 2016, 2017 by Thomas A. Manz and Nidia Gabaldon Limas. Rights reserved.
 Use and distribution of this program is subject to certain licensing restrictions.
 Please see ddec.sourceforge.net for details.
  
 Please cite the following journal references when using this program to compute DDEC6 charges:
 N. Gabaldon Limas and T. A. Manz,  "Introducing DDEC6 atomic population analysis: part 2. 
 Computed results for a wide range of periodic and nonperiodic materials," RSC Advances, Vol. 6 (2016) 45727-45747.
 T. A. Manz and N. Gabaldon Limas, "Introducing DDEC6 atomic population analysis: part 1.
 Charge partitioning theory and methodology," RSC Advances, Vol. 6 (2016) 47771-47801.
 If desired, you can also cite references listed below for the DDEC3 and earlier methods.
  
 Please cite the following journal references when using this program to compute DDEC, Hirshfeld, or ISA charges:
 Thomas A. Manz and David S. Sholl, "Improved Atoms-in-Molecule Charge Partitioning Functional for Simultaneously Reproducing the Electrostatic
 Potential and Chemical States in Periodic and Non-Periodic Materials", J. Chem. Theory Comput., Vol. 8 (2012) 2844-2867.
 Thomas A. Manz and David S. Sholl, "Chemically Meaningful Atomic Charges that Reproduce the Electrostatic Potential in Periodic and Nonperiodic
 Materials", J. Chem. Theory Comput., Vol. 6 (2010) 2455-2468.
  
 Please cite the following journal reference when using this program to compute atomic spin moments:
 Thomas A. Manz and David S. Sholl, "Methods for Computing Accurate Atomic Spin Moments for Collinear and Noncollinear Magnetism in Periodic and
 Nonperiodic Materials", J. Chem. Theory Comput., Vol. 7 (2011) 4146-4164.
  
 Please cite the following reference when using this program to compute bond orders:
 Thomas A. Manz, "Introducing DDEC6 atomic population analysis: part 3. Comprehensive method to compute bond orders.", RSC Advances, Vol. 7 (2017) 45552-45581.
  
 Exiting Chargemol
 2017/10/01  14:04:58
  
 ******************** TIME CONTROL ********************
 Finished chargemol in    12.821999549865723      seconds
 ******************************************************
  
